^F:\REPOSITORY\С++\13.4\HELLOWORLD_3.1\DEBUG\MAIN.OBJ|F:\REPOSITORY\С++\13.4\HELLOWORLD_3.1\DEBUG\MATH.OBJ
F:\REPOSITORY\С++\13.4\HELLOWORLD_3.1\DEBUG\HELLOWORLD_3.1.EXE
F:\REPOSITORY\С++\13.4\HELLOWORLD_3.1\DEBUG\HELLOWORLD_3.1.ILK
F:\REPOSITORY\С++\13.4\HELLOWORLD_3.1\DEBUG\HELLOWORLD_3.1.PDB
