^F:\REPOSITORY\С++\13.4\HELLOITSWORKHOME_13.4\DEBUG\HELLOITSWORKHOME_13.4.OBJ
F:\REPOSITORY\С++\13.4\HELLOITSWORKHOME_13.4\DEBUG\HELLOITSWORKHOME_13.4.EXE
F:\REPOSITORY\С++\13.4\HELLOITSWORKHOME_13.4\DEBUG\HELLOITSWORKHOME_13.4.ILK
F:\REPOSITORY\С++\13.4\HELLOITSWORKHOME_13.4\DEBUG\HELLOITSWORKHOME_13.4.PDB
